{
  "swagger": "2.0",
  "info": {
    "title": "API Cardinity",
    "version": "1.0",
    "description": "Cardinity API is organized around REST. OAuth 1.0 is used as the API Authentication framework. Request and response payloads are formatted as JSON. Error details are also provided as JSON. API uses resource-oriented URLs and HTTP response codes to indicate API errors and successful actions.",
    "contact": {
      "url": "https://cardinity.com"
    }
  },
  "host": "api.cardinity.com",
  "basePath": "/v1",
  "tags": [
    {
      "name": "Payments"
    },
    {
      "name": "Refunds"
    },
    {
      "name": "Settlements"
    },
    {
      "name": "Voids"
    }
  ],
  "schemes": ["https"],
  "produces": ["application/json"],
  "consumes": ["application/json"],
  "paths": {
    "/payments": {
      "post": {
        "tags": ["Payments"],
        "operationId": "create-new-payment",
        "summary": "Create new payment or recurring payment",
        "description": "To process a payment you have to create a new payment object. To process a recurring payment you have to create a new payment object with payment_method attribute set to recurring and provide ID of the previous successful payment in a payment_instrument object. Same card will be used to create a new payment.",
        "parameters": [
          {
            "in": "body",
            "name": "body",
            "required": true,
            "schema": {
              "$ref": "#/definitions/payment"
            }
          }
        ],
        "responses": {
          "201": {
            "$ref": "#/responses/201-create-new-payment"
          },
          "202": {
            "$ref": "#/responses/202-create-new-payment"
          },
          "402": {
            "$ref": "#/responses/402-create-new-payment"
          },
          "400": {
            "$ref": "#/responses/error-400"
          },
          "401": {
            "$ref": "#/responses/error-401"
          },
          "405": {
            "$ref": "#/responses/error-405"
          },
          "500": {
            "$ref": "#/responses/error-500"
          },
          "503": {
            "$ref": "#/responses/error-503"
          }
        }
      },
      "get": {
        "tags": ["Payments"],
        "operationId": "get-all-payments",
        "summary": "Get all payments",
        "description": "To retrieve all payments you have to send a GET request. An optional limit parameter can be used to specify a number of last payments to be returned.",
        "parameters": [
          {
            "type": "string",
            "name": "limit",
            "in": "query",
            "required": false,
            "default": 10,
            "description": "Number of last payments to be returned. Default is 10 last payments."
          }
        ],
        "responses": {
          "200": {
            "$ref": "#/responses/200-get-all-payments"
          }
        }
      }
    },
    "/payments/{payment_id}": {
      "get": {
        "tags": ["Payments"],
        "operationId": "get-existing-payment",
        "summary": "Get existing payment",
        "description": "To retrieve a specific payment you have to send GET request providing an ID of a payment.",
        "parameters": [
          {
            "type": "string",
            "name": "payment_id",
            "in": "path",
            "required": true,
            "description": "Payment ID"
          }
        ],
        "responses": {
          "200": {
            "$ref": "#/responses/200-get-existing-payment"
          },
          "404": {
            "$ref": "#/responses/error-404"
          }
        }
      },
      "patch": {
        "tags": ["Payments"],
        "operationId": "finalize-pending-payment",
        "summary": "Finalize a pending payment",
        "description": "To finalize a pending payment you have to send a PATCH request for that payment providing authorization information.",
        "parameters": [
          {
            "type": "string",
            "name": "payment_id",
            "in": "path",
            "required": true,
            "description": "Payment ID"
          }
        ],
        "responses": {
          "201": {
            "$ref": "#/responses/201-finalize-pending-payment"
          },
          "202": {
            "$ref": "#/responses/202-finalize-pending-payment"
          },
          "402": {
            "$ref": "#/responses/402-finalize-pending-payment"
          },
          "400": {
            "$ref": "#/responses/error-400"
          },
          "401": {
            "$ref": "#/responses/error-401"
          },
          "405": {
            "$ref": "#/responses/error-405"
          },
          "500": {
            "$ref": "#/responses/error-500"
          },
          "503": {
            "$ref": "#/responses/error-503"
          }
        }
      }
    },
    "/payments/{payment_id}/refunds": {
      "post": {
        "tags": ["Refunds"],
        "operationId": "create-new-refund",
        "summary": "Create new refund",
        "description": "To process a refund you have to create a new refund object providing Payment ID and amount to be refunded. Partial refunds can be made thus one payment might have more than one refund.",
        "parameters": [
          {
            "type": "string",
            "name": "payment_id",
            "in": "path",
            "required": true,
            "description": "Payment ID"
          },
          {
            "in": "body",
            "name": "body",
            "required": true,
            "schema": {
              "$ref": "#/definitions/refund"
            }
          }
        ],
        "responses": {
          "201": {
            "$ref": "#/responses/201-create-new-refund"
          },
          "402": {
            "$ref": "#/responses/402-create-new-refund"
          },
          "400": {
            "$ref": "#/responses/error-400"
          },
          "401": {
            "$ref": "#/responses/error-401"
          },
          "405": {
            "$ref": "#/responses/error-405"
          },
          "500": {
            "$ref": "#/responses/error-500"
          },
          "503": {
            "$ref": "#/responses/error-503"
          }
        }
      },
      "get": {
        "tags": ["Refunds"],
        "operationId": "get-all-refunds",
        "summary": "Get all refunds",
        "description": "To retrieve all refunds for a specific payment you have to send a GET request providing a payment ID.",
        "parameters": [
          {
            "type": "string",
            "name": "payment_id",
            "in": "path",
            "required": true,
            "description": "Payment ID"
          }
        ],
        "responses": {
          "200": {
            "$ref": "#/responses/200-get-all-refunds"
          }
        }
      }
    },
    "/payments/{payment_id}/refunds/{refund_id}": {
      "get": {
        "tags": ["Refunds"],
        "operationId": "get-existing-refund",
        "summary": "Get existing refund",
        "description": "To retrieve a specific refund you have to send a GET request providing an ID of a payment and ID of a refund.",
        "parameters": [
          {
            "type": "string",
            "name": "payment_id",
            "in": "path",
            "required": true,
            "description": "Payment ID"
          },
          {
            "type": "string",
            "name": "refund_id",
            "in": "path",
            "required": true,
            "description": "Refund ID"
          }
        ],
        "responses": {
          "200": {
            "$ref": "#/responses/200-get-existing-refund"
          },
          "404": {
            "$ref": "#/responses/error-404"
          }
        }
      }
    },
    "/payments/{payment_id}/settlement": {
      "post": {
        "tags": ["Settlements"],
        "operationId": "create-new-settlement",
        "summary": "Create new settlement",
        "description": "To settle authorized payment you have to create a new settlement object providing Payment Id and amount to be settled. Only one settlement for a payment is allowed. You can not settle larger amount than it was authorized.",
        "parameters": [
          {
            "type": "string",
            "name": "payment_id",
            "in": "path",
            "required": true,
            "description": "Payment ID"
          },
          {
            "in": "body",
            "name": "body",
            "required": true,
            "schema": {
              "$ref": "#/definitions/settlement"
            }
          }
        ],
        "responses": {
          "201": {
            "$ref": "#/responses/201-create-new-settlement"
          },
          "402": {
            "$ref": "#/responses/402-create-new-settlement"
          },
          "400": {
            "$ref": "#/responses/error-400"
          },
          "401": {
            "$ref": "#/responses/error-401"
          },
          "405": {
            "$ref": "#/responses/error-405"
          },
          "500": {
            "$ref": "#/responses/error-500"
          },
          "503": {
            "$ref": "#/responses/error-503"
          }
        }
      },
      "get": {
        "tags": ["Settlements"],
        "operationId": "get-all-settlements",
        "summary": "Get all settlements",
        "description": "To retrieve a settlement for a specific payment you have to send GET request providing a payment id.",
        "parameters": [
          {
            "type": "string",
            "name": "payment_id",
            "in": "path",
            "required": true,
            "description": "Payment ID"
          }
        ],
        "responses": {
          "200": {
            "$ref": "#/responses/200-get-all-settlements"
          }
        }
      }
    },
    "/payments/{payment_id}/settlements/{settlement_id}": {
      "get": {
        "tags": ["Settlements"],
        "operationId": "get-existing-settlement",
        "summary": "Get existing settlement",
        "description": "To retrieve a specific settlement you have to send GET request providing an ID of a payment and ID of a settlement.",
        "parameters": [
          {
            "type": "string",
            "name": "payment_id",
            "in": "path",
            "required": true,
            "description": "Payment ID"
          },
          {
            "type": "string",
            "name": "settlement_id",
            "in": "path",
            "required": true,
            "description": "Settlement ID"
          }
        ],
        "responses": {
          "200": {
            "$ref": "#/responses/200-get-all-settlements"
          },
          "404": {
            "$ref": "#/responses/error-404"
          }
        }
      }
    },
    "/payments/{payment_id}/voids": {
      "post": {
        "tags": ["Voids"],
        "operationId": "create-new-void",
        "summary": "Create new void",
        "description": "To void an authorized payment you have to create a new void object providing Payment Id.",
        "parameters": [
          {
            "type": "string",
            "name": "payment_id",
            "in": "path",
            "required": true,
            "description": "Payment ID"
          },
          {
            "in": "body",
            "name": "body",
            "required": true,
            "schema": {
              "$ref": "#/definitions/void"
            }
          }
        ],
        "responses": {
          "201": {
            "$ref": "#/responses/201-create-new-void"
          },
          "402": {
            "$ref": "#/responses/402-create-new-void"
          },
          "400": {
            "$ref": "#/responses/error-400"
          },
          "401": {
            "$ref": "#/responses/error-401"
          },
          "405": {
            "$ref": "#/responses/error-405"
          },
          "500": {
            "$ref": "#/responses/error-500"
          },
          "503": {
            "$ref": "#/responses/error-503"
          }
        }
      },
      "get": {
        "tags": ["Voids"],
        "operationId": "get-all-voids",
        "summary": "Get all voids",
        "description": "To retrieve a void for a specific payment you have to send GET request providing payment id.",
        "parameters": [
          {
            "type": "string",
            "name": "payment_id",
            "in": "path",
            "required": true,
            "description": "Payment ID"
          }
        ],
        "responses": {
          "200": {
            "$ref": "#/responses/200-get-all-voids"
          }
        }
      }
    },
    "/payments/{payment_id}/voids/{void_id}": {
      "get": {
        "tags": ["Voids"],
        "operationId": "get-existing-void",
        "summary": "Get existing void",
        "description": "To retrieve a specific void you have to send GET request providing an ID of a payment and ID of a void.",
        "parameters": [
          {
            "type": "string",
            "name": "payment_id",
            "in": "path",
            "required": true,
            "description": "Payment ID"
          },
          {
            "type": "string",
            "name": "void_id",
            "in": "path",
            "required": true,
            "description": "Void ID"
          }
        ],
        "responses": {
          "200": {
            "$ref": "#/responses/200-get-all-voids"
          },
          "404": {
            "$ref": "#/responses/error-404"
          }
        }
      }
    }
  },
  "responses": {
    "201-create-new-payment": {
      "description": "Successful creation of a resource (e.g. successful payment, refund, etc).",
      "schema": {
        "$ref": "#/definitions/payment"
      }
    },
    "202-create-new-payment": {
      "description": "Payment was accepted but is in a pending state. You must provide additional information to complete this payment.",
      "schema": {
        "$ref": "#/definitions/payment"
      }
    },
    "402-create-new-payment": {
      "description": "Your request was valid but it was declined.",
      "schema": {
        "$ref": "#/definitions/payment"
      }
    },
    "201-finalize-pending-payment": {
      "description": "Indicates successful retrieval of a resource.",
      "schema": {
        "$ref": "#/definitions/payment"
      }
    },
    "202-finalize-pending-payment": {
      "description": "Payment was accepted but is in a pending state. You must provide additional information to complete this payment.",
      "schema": {
        "$ref": "#/definitions/payment"
      }
    },
    "402-finalize-pending-payment": {
      "description": "Your request was valid but it was declined.",
      "schema": {
        "$ref": "#/definitions/payment"
      }
    },
    "201-create-recurring-payment": {
      "description": "Indicates successful retrieval of a resource.",
      "schema": {
        "$ref": "#/definitions/payment"
      }
    },
    "402-create-recurring-payment": {
      "description": "Your request was valid but it was declined.",
      "schema": {
        "$ref": "#/definitions/payment"
      }
    },
    "200-get-existing-payment": {
      "description": "Indicates successful retrieval of a resource.",
      "schema": {
        "$ref": "#/definitions/payment"
      }
    },
    "200-get-all-payments": {
      "description": "Indicates successful retrieval of a resource.",
      "schema": {
        "$ref": "#/definitions/payment_array"
      }
    },
    "201-create-new-refund": {
      "description": "Successful creation of a resource (e.g. successful payment, refund, etc).",
      "schema": {
        "$ref": "#/definitions/refund"
      }
    },
    "402-create-new-refund": {
      "description": "Your request was valid but it was declined.",
      "schema": {
        "$ref": "#/definitions/refund"
      }
    },
    "200-get-existing-refund": {
      "description": "Indicates successful retrieval of a resource.",
      "schema": {
        "$ref": "#/definitions/refund"
      }
    },
    "200-get-all-refunds": {
      "description": "Indicates successful retrieval of a resource.",
      "schema": {
        "$ref": "#/definitions/refund_array"
      }
    },
    "201-create-new-settlement": {
      "description": "Successful creation of a resource (e.g. successful payment, refund, etc).",
      "schema": {
        "$ref": "#/definitions/settlement"
      }
    },
    "402-create-new-settlement": {
      "description": "Your request was valid but it was declined.",
      "schema": {
        "$ref": "#/definitions/settlement"
      }
    },
    "200-get-existing-settlement": {
      "description": "Indicates successful retrieval of a resource.",
      "schema": {
        "$ref": "#/definitions/settlement"
      }
    },
    "200-get-all-settlements": {
      "description": "Indicates successful retrieval of a resource.",
      "schema": {
        "$ref": "#/definitions/settlement_array"
      }
    },
    "201-create-new-void": {
      "description": "Successful creation of a resource (e.g. successful payment, refund, etc).",
      "schema": {
        "$ref": "#/definitions/void"
      }
    },
    "402-create-new-void": {
      "description": "Your request was valid but it was declined.",
      "schema": {
        "$ref": "#/definitions/void"
      }
    },
    "200-get-existing-void": {
      "description": "Indicates successful retrieval of a resource.",
      "schema": {
        "$ref": "#/definitions/void"
      }
    },
    "200-get-all-voids": {
      "description": "Indicates successful retrieval of a resource.",
      "schema": {
        "$ref": "#/definitions/void_array"
      }
    },
    "error-400": {
      "description": "Your request contains field or business logic validation errors or provided JSON is malformed.",
      "schema": {
        "$ref": "#/definitions/error"
      }
    },
    "error-401": {
      "description": "Your authorization information was missing or wrong.",
      "schema": {
        "$ref": "#/definitions/error"
      }
    },
    "error-403": {
      "description": "You do not have access to this resource."
    },
    "error-404": {
      "description": "Returns an error object if payment was not found.",
      "schema": {
        "$ref": "#/definitions/error"
      }
    },
    "error-405": {
      "description": "You tried to access a resource using an invalid HTTP method.",
      "schema": {
        "$ref": "#/definitions/error"
      }
    },
    "error-406": {
      "description": " Wrong Accept headers sent in the request."
    },
    "error-415": {
      "description": "Wrong Content-Type headers sent in the request."
    },
    "error-500": {
      "description": "We had a problem on our end. Try again later.",
      "schema": {
        "$ref": "#/definitions/error"
      }
    },
    "error-503": {
      "description": " We're temporarily off-line for maintenance. Please try again later.",
      "schema": {
        "$ref": "#/definitions/error"
      }
    }
  },
  "definitions": {
    "threeds2": {
      "description": "3DS2 object",
      "type": "object",
      "properties": {
        "notification_url": {
          "type": "string",
          "description": "Absolute URL to a location where 3D Secure challenge response will be sent."
        },
        "browser_info": {
          "$ref": "#/definitions/browser_info"
        },
        "billing_address": {
          "type": "object",
          "$ref": "#/definitions/address",
          "description": "Billing address of the cardholder."
        },
        "delivery_address": {
          "type": "object",
          "$ref": "#/definitions/address",
          "description": "Delivery address of the purchased product."
        },
        "cardholder_info": {
          "$ref": "#/definitions/cardholder_info"
        }
      },
      "required": ["notification_url", "browser_info"],
      "example": {
        "notification_url": "https://www.myonlineshop.com/callback/3dsv2",
        "browser_info": {
          "accept_header": "Some header",
          "browser_language": "en",
          "screen_width": 390,
          "screen_height": 400,
          "challenge_window_size": "390x400",
          "user_agent": "super user agent",
          "color_depth": 24,
          "time_zone": -60,
          "ip_address": "192.168.0.1",
          "javascript_enabled": true,
          "java_enabled": false
        }
      }
    },
    "cardholder_info": {
      "description": "Cardholder object",
      "type": "object",
      "properties": {}
    },
    "address": {
      "description": "Address object",
      "type": "object",
      "properties": {
        "address_line1": {
          "type": "string",
          "maxLength": 50,
          "description": "First line of the address. Maximum length is 50 characters."
        },
        "address_line2": {
          "type": "string",
          "maxLength": 50,
          "description": "Second line of the address. Maximum length is 50 characters."
        },
        "address_line3": {
          "type": "string",
          "maxLength": 50,
          "description": "Third line of the address. Maximum length is 50 characters."
        },
        "city": {
          "type": "string",
          "maxLength": 50,
          "description": "City of the address. Maximum length is 50 characters."
        },
        "country": {
          "type": "string",
          "minLength": 3,
          "maxLength": 2,
          "description": "Country of the address. Must be a ISO 3166-1 alpha-2 country code."
        },
        "postal_code": {
          "type": "string",
          "maxLength": 16,
          "description": "Postal code of the address. Maximum length is 16 characters."
        },
        "state": {
          "type": "string",
          "description": "State of the address. Must be a country subdivision code defined in ISO 3166-2."
        }
      },
      "required": ["address_line1", "city", "country", "postal_code"]
    },
    "browser_info": {
      "description": "Browser info object",
      "type": "object",
      "properties": {
        "accept_header": {
          "type": "string",
          "description": "HTTP accept header sent from the cardholder's browser."
        },
        "browser_language": {
          "type": "string",
          "description": "The cardholder's browser language as defined in IETF BCP 47."
        },
        "screen_width": {
          "type": "number",
          "description": "The screen width of the cardholder's browser."
        },
        "screen_height": {
          "type": "number",
          "description": "The screen height of the cardholder's browser."
        },
        "challenge_window_size": {
          "type": "string",
          "enum": ["250x400", "390x400", "500x600", "600x400", "full-screen"],
          "description": "Dimensions of the challenge window to be displayed to the cardholder. Supported values: 250x400, 390x400, 500x600, 600x400, full-screen."
        },
        "user_agent": {
          "type": "string",
          "description": "The User-Agent provided by the cardholder's browser."
        },
        "color_depth": {
          "type": "number",
          "description": "The User-Agent provided by the cardholder's browser."
        },
        "time_zone": {
          "type": "number",
          "description": "The time difference between UTC time cardholder's browser time in minutes."
        },
        "ip_address": {
          "type": "string",
          "description": "IP address of the cardholder's browser."
        },
        "javascript_enabled": {
          "type": "boolean",
          "default": true,
          "description": "Indicates whether JavaScript is enabled in the cardholder's browser. Default true"
        },
        "java_enabled": {
          "type": "boolean",
          "default": false,
          "description": "Indicates whether Java is enabled in the cardholder's browser. Default false"
        }
      },
      "required": [
        "accept_header",
        "browser_language",
        "screen_width",
        "screen_height",
        "challenge_window_size",
        "user_agent",
        "color_depth",
        "time_zone"
      ]
    },
    "authorization_information": {
      "description": "Authorization information object",
      "type": "object",
      "readOnly": true,
      "properties": {}
    },
    "payment": {
      "description": "Payment object",
      "type": "object",
      "properties": {
        "id": {
          "type": "string",
          "minLength": 36,
          "maxLength": 36,
          "format": "UUID",
          "readOnly": true,
          "description": "ID of the payment. Value assigned by Cardinity."
        },
        "amount": {
          "type": "string",
          "format": "#0.00",
          "minLength": 4,
          "description": "Amount charged shown in #0.00 format."
        },
        "currency": {
          "type": "string",
          "minLength": 3,
          "enum": ["EUR", "GBP", "USD"],
          "readOnly": true,
          "description": "Three-letter ISO currency code representing the currency in which the charge was made. Supported currencies: EUR, GBP, USD. Value assigned by Cardinity."
        },
        "created": {
          "type": "string",
          "format": "datetime",
          "readOnly": true,
          "description": "Payment creation time as defined in RFC 3339 Section 5.6. UTC timezone. Value assigned by Cardinity."
        },
        "type": {
          "type": "string",
          "enum": ["authorization", "purchase"],
          "readOnly": true,
          "description": "Payment type. Can be one of the following: authorization, purchase. Value assigned by Cardinity."
        },
        "live": {
          "type": "boolean",
          "default": true,
          "readOnly": true,
          "description": "Indicates whether a payment was made in live or testing mode. Value assigned by Cardinity."
        },
        "settle": {
          "type": "boolean",
          "default": true,
          "readOnly": true,
          "description": "Optional. Default: true. Used to indicate a transaction type while creating a payment: true - purchase, false - authorization."
        },
        "status": {
          "type": "string",
          "enum": ["pending", "approved", "declined"],
          "readOnly": true,
          "description": "Payment status. Can be one of the following: pending, approved, declined. Value assigned by Cardinity."
        },
        "error": {
          "type": "string",
          "readOnly": true,
          "description": "Error message. Returned only if status is declined. Provides human readable information why the payment failed. Value assigned by Cardinity."
        },
        "order_id": {
          "type": "string",
          "format": "[A-Za-z0-9'.-]",
          "minLength": 2,
          "maxLength": 50,
          "description": "Optional. Order ID provided by a merchant. Must be between 2 and 50 characters [A-Za-z0-9'.-]."
        },
        "description": {
          "type": "string",
          "maxLength": 255,
          "description": "Payment description provided by a merchant. Maximum length 255 characters."
        },
        "country": {
          "type": "string",
          "minLength": 2,
          "maxLength": 2,
          "description": "Country of a customer provided by a merchant. ISO 3166-1 alpha-2 country code."
        },
        "payment_method": {
          "type": "string",
          "enum": ["card", "recurring"],
          "description": "Can be one the following: card, recurring"
        },
        "payment_instrument": {
          "$ref": "#/definitions/payment_instrument"
        },
        "threeds2": {
          "$ref": "#/definitions/threeds2"
        },
        "cres": {
          "type": "string",
          "description": "Used in 3D Secure V2 flow to provide challenge response value (PATCH verb) once customer completes authorization process."
        },
        "authorize_data": {
          "type": "string",
          "description": "Used in 3D Secure V1 flow to provide additional information (PATCH verb) once customer completes authorization process."
        },
        "authorization_information": {
          "$ref": "#/definitions/authorization_information"
        }
      },
      "required": ["amount", "currency", "country", "payment_method", "payment_instrument"],
      "example": {
        "amount": 50.0,
        "currency": "EUR",
        "settle": true,
        "description": "Payment from NodeJS",
        "order_id": "NodeJS1",
        "country": "LT",
        "payment_method": "card",
        "payment_instrument": {
          "pan": "5555555555554444",
          "exp_year": 2022,
          "exp_month": 2,
          "cvc": "222",
          "holder": "John Doe"
        },
        "threeds2": {
          "notification_url": "https://www.myonlineshop.com/callback/3dsv2",
          "browser_info": {
            "accept_header": "Some header",
            "browser_language": "en",
            "screen_width": 390,
            "screen_height": 400,
            "challenge_window_size": "390x400",
            "user_agent": "super user agent",
            "color_depth": 24,
            "time_zone": 60,
            "ip_address": "192.168.0.1",
            "javascript_enabled": true,
            "java_enabled": false
          }
        }
      }
    },
    "payment_instrument_recurring": {
      "description": "Payment instrument recurring object",
      "type": "object",
      "required": ["payment_id"],
      "properties": {
        "payment_id": {
          "type": "string",
          "description": "ID of the successful payment in the past."
        }
      },
      "example": {
        "payment_id": "25e6f869-6675-4488-bd47-ccd298f74b3f"
      }
    },
    "payment_instrument": {
      "description": "Payment instrument object",
      "type": "object",
      "properties": {
        "card_brand": {
          "type": "string",
          "description": "Card brand. Value assigned by Cardinity.",
          "example": "Visa"
        },
        "pan": {
          "type": "string",
          "description": "Card number. When creating a payment provide full card number. However while retrieving an existing payments only last 4 digits are returned.",
          "example": "0067"
        },
        "exp_year": {
          "type": "number",
          "minLength": 4,
          "maxLength": 4,
          "description": "Expiration year 4 digits.",
          "example": 2021
        },
        "exp_month": {
          "type": "number",
          "minLength": 1,
          "maxLength": 2,
          "description": "Expiration month 1-2 digits.",
          "example": 9
        },
        "cvc": {
          "type": "string",
          "description": "Card security code. Only used when creating a payment.",
          "example": 658
        },
        "holder": {
          "type": "string",
          "maxLength": 32,
          "description": "Card holder's name. Max length 32 characters.",
          "example": "Mike Dough"
        }
      },
      "required": ["pan", "exp_year", "exp_month", "holder"],
      "example": {
        "card_brand": "Visa",
        "pan": "0067",
        "exp_year": 2021,
        "exp_month": 11,
        "holder": "Mike Dough"
      }
    },
    "payment_array": {
      "description": "Payments array",
      "type": "array",
      "items": {
        "$ref": "#/definitions/payment"
      }
    },
    "refund": {
      "description": "Refund object",
      "type": "object",
      "properties": {
        "id": {
          "type": "string",
          "minLength": 36,
          "maxLength": 36,
          "format": "UUID",
          "readOnly": true,
          "description": "ID of the refund. Value assigned by Cardinity."
        },
        "amount": {
          "type": "string",
          "format": "#0.00",
          "minLength": 4,
          "description": "Amount to be refunded. Only positive values are allowed. Format: #0.00, two decimal places precision is required."
        },
        "currency": {
          "type": "string",
          "minLength": 3,
          "enum": ["EUR", "GBP", "USD"],
          "readOnly": true,
          "description": "Three-letter ISO currency code representing the currency in which the charge was made. Supported currencies: EUR, GBP, USD. Value assigned by Cardinity."
        },
        "type": {
          "type": "string",
          "enum": ["refund"],
          "readOnly": true,
          "description": "Can only be: refund. Value assigned by Cardinity."
        },
        "created": {
          "type": "string",
          "format": "datetime",
          "readOnly": true,
          "description": "Payment creation time as defined in RFC 3339 Section 5.6. UTC timezone. Value assigned by Cardinity."
        },
        "live": {
          "type": "boolean",
          "default": true,
          "readOnly": true,
          "description": "Indicates whether a payment was made in live or testing mode. Value assigned by Cardinity."
        },
        "parent_id": {
          "type": "string",
          "format": "UUID",
          "readOnly": true,
          "description": "ID of the refunded payment. Value assigned by Cardinity."
        },
        "status": {
          "type": "string",
          "enum": ["approved", "declined"],
          "readOnly": true,
          "description": "Refund status. Can be one of the following: approved or declined. Value assigned by Cardinity."
        },
        "error": {
          "type": "string",
          "readOnly": true,
          "description": "Error message. Returned only if status is declined. Provides human readable information why a settlement failed. Value assigned by Cardinity."
        },
        "order_id": {
          "type": "string",
          "format": "[A-Za-z0-9'.-]",
          "minLength": 2,
          "maxLength": 50,
          "readOnly": true,
          "description": "Order ID provided by a merchant. Must be between 2 and 50 characters [A-Za-z0-9'.-]. Value assigned by Cardinity."
        },
        "description": {
          "type": "string",
          "maxLength": 255,
          "description": "Refund description provided by a merchant. Maximum length 255 characters."
        }
      },
      "required": ["amount"],
      "example": {
        "id": "25e6f869-6675-4488-bd47-ccd298f74b3f",
        "amount": "0.50",
        "currency": "EUR",
        "type": "refund",
        "created": "2015-01-16T09:05:27Z",
        "live": false,
        "parent_id": "f02862aa-5dcc-4637-9ddf-b9140c2b4b06",
        "status": "approved"
      }
    },
    "refund_array": {
      "description": "Refunds array",
      "type": "array",
      "items": {
        "$ref": "#/definitions/refund"
      }
    },
    "settlement": {
      "description": "Settlement object",
      "type": "object",
      "properties": {
        "id": {
          "type": "string",
          "format": "UUID",
          "readOnly": true,
          "description": "ID of the settlement. Value assigned by Cardinity."
        },
        "amount": {
          "type": "string",
          "format": "#0.00",
          "description": "Amount settled shown in #0.00 format."
        },
        "currency": {
          "type": "string",
          "enum": ["EUR", "GBP", "USD"],
          "readOnly": true,
          "description": "Three-letter ISO currency code representing the currency in which the settlement was made. Supported currencies: EUR, GBP, USD. Value assigned by Cardinity"
        },
        "type": {
          "type": "string",
          "enum": ["settlement"],
          "readOnly": true,
          "description": "Can only be: settlement. Value assigned by Cardinity."
        },
        "created": {
          "type": "string",
          "format": "datetime",
          "readOnly": true,
          "description": "Settlement creation time as defined in RFC 3339 Section 5.6. UTC timezone. Value assigned by Cardinity."
        },
        "live": {
          "type": "boolean",
          "description": "Indicates whether settlement was made in live or testing mode. Value assigned by Cardinity."
        },
        "parent_id": {
          "type": "string",
          "format": "UUID",
          "readOnly": true,
          "description": "ID of the settled payment. Value assigned by Cardinity."
        },
        "status": {
          "type": "string",
          "enum": ["approved", "declined"],
          "readOnly": true,
          "description": "Settlement status. Can be one of the following: approved or declined. Value assigned by Cardinity."
        },
        "error": {
          "type": "string",
          "readOnly": true,
          "description": "Error message. Returned only if status is declined. Provides human readable information why a settlement failed. Value assigned by Cardinity."
        },
        "order_id": {
          "type": "string",
          "format": "[A-Za-z0-9'.-]",
          "minLength": 2,
          "maxLength": 50,
          "readOnly": true,
          "description": "Order ID provided by a merchant. Must be between 2 and 50 characters [A-Za-z0-9'.-]. Value assigned by Cardinity."
        },
        "description": {
          "type": "string",
          "maxLength": 255,
          "description": "Settlement description provided by a merchant. Maximum length: 255 characters."
        }
      },
      "required": ["amount", "description"],
      "example": {
        "id": "25e6f869-6675-4488-bd47-ccd298f74b3f",
        "amount": "0.50",
        "currency": "EUR",
        "type": "settlement",
        "created": "2015-01-16T09:05:27Z",
        "live": true,
        "parent_id": "f02862aa-5dcc-4637-9ddf-b9140c2b4b06",
        "status": "approved"
      }
    },
    "settlement_array": {
      "description": "Settlement array",
      "type": "array",
      "items": {
        "$ref": "#/definitions/settlement"
      }
    },
    "void": {
      "description": "Voids object",
      "type": "object",
      "properties": {
        "id": {
          "type": "string",
          "format": "UUID",
          "readOnly": true,
          "description": "ID of the void. Value assigned by Cardinity."
        },
        "type": {
          "type": "string",
          "enum": ["void"],
          "readOnly": true,
          "description": "Can only be: void. Value assigned by Cardinity."
        },
        "created": {
          "type": "string",
          "format": "datetime",
          "readOnly": true,
          "description": "Void creation time as defined in RFC 3339 Section 5.6. UTC timezone. Value assigned by Cardinity."
        },
        "live": {
          "type": "boolean",
          "readOnly": true,
          "description": "Indicates whether void was made in live or testing mode. Value assigned by Cardinity."
        },
        "parent_id": {
          "type": "string",
          "format": "UUID",
          "readOnly": true,
          "description": "ID of the voided payment. Value assigned by Cardinity."
        },
        "status": {
          "type": "string",
          "enum": ["approved", "declined"],
          "readOnly": true,
          "description": "Void status. Can be one of the following: approved or declined. Value assigned by Cardinity."
        },
        "error": {
          "type": "string",
          "readOnly": true,
          "description": "Error message. Returned only if status is declined. Provides human readable information why a void failed. Value assigned by Cardinity."
        },
        "order_id": {
          "type": "string",
          "format": "[A-Za-z0-9'.-]",
          "minLength": 2,
          "maxLength": 50,
          "readOnly": true,
          "description": "Order ID provided by a merchant. Must be between 2 and 50 characters [A-Za-z0-9'.-]. Value assigned by Cardinity."
        },
        "description": {
          "type": "string",
          "maxLength": 255,
          "description": "Void description provided by a merchant. Maximum length: 255 characters."
        }
      },
      "required": ["description"],
      "example": {
        "id": "25e6f869-6675-4488-bd47-ccd298f74b3f",
        "type": "void",
        "created": "2015-01-16T09:05:27Z",
        "live": true,
        "parent_id": "f02862aa-5dcc-4637-9ddf-b9140c2b4b06",
        "status": "approved"
      }
    },
    "void_array": {
      "description": "Voids array",
      "type": "array",
      "items": {
        "$ref": "#/definitions/void"
      }
    },
    "error": {
      "description": "Error object",
      "type": "object",
      "properties": {
        "type": {
          "type": "string",
          "description": "URL to error's documentation page."
        },
        "title": {
          "type": "string",
          "description": "Title of an error."
        },
        "status": {
          "type": "number",
          "description": "HTTP response status."
        },
        "detail": {
          "type": "string",
          "description": "Human readable information about the error."
        },
        "errors": {
          "type": "array",
          "uniqueItems": true,
          "minItems": 1,
          "description": "In case of validation errors all the fields with incorrect information are returned.",
          "items": {
            "type": "object",
            "properties": {
              "field": {
                "type": "string"
              },
              "rejected": {
                "type": "string"
              },
              "message": {
                "type": "string"
              }
            }
          }
        }
      },
      "example": {
        "type": "https://developers.cardinity.com/api/v1/#400",
        "title": "Validation Failed",
        "status": 400,
        "detail": "The content you've send contains 2 validation errors.",
        "errors": [
          {
            "field": "currency",
            "rejected": "EGR",
            "message": "invalid or unsupported currency"
          }
        ]
      }
    }
  }
}